// Jest Snapshot v1, https://goo.gl/fbAQLP

exports[`Root renders and matches snapshot 1`] = `
<div>
  <div
    class="spinnerHolder"
    id="overlay"
  />
  <div
    class="Toastify"
  />
  <div
    id="homeHolder"
    style=""
  />
</div>
`;
